{
  "type": "minecraft:crafting_shapeless",
  "ingredients": [
    {
      "item": "minecraft:red_mushroom"
    },
    {
      "item": "minecraft:bowl"
    },
    {
      "item": "minecraft:sunflower"
    },
    {
      "item": "minecraft:brown_mushroom"
    }
  ],
  "result": {
    "item": "foreveryoung:sunflower_stew",
    "count": 1
  }
}